{
  "Quote": [
    {
      "id": 1,
      "quoteidentifier": "FT35630",
      "driver_ID": 1,
      "car_ID": 1,
      "repairShop_ID": 1,
      "requestDate": "01/01/2018",
      "status": 2,
      "userDetails": "Ho spaccato il finestrino e un vetro ha tagliato la ruota",
      "operIntDetails": "dettagli Int",
      "operExtDetails": "dettagli Ext",
      "quoteTotal": 100,
      "discountTotal": 80,
      "expDate": "04/01/2018",
      "isVisible": 1,
      "paid": 0,
      "operator_ID": 1
    },
    {
      "id": 6,
      "quoteidentifier": "CD23535",
      "driver_ID": 1,
      "car_ID": 1,
      "repairShop_ID": 1,
      "requestDate": "01/21/2008",
      "status": 1,
      "userDetails": "Un ciclista mi è venuto addosso",
      "operIntDetails": "dettagli Int",
      "operExtDetails": "dettagli Ext",
      "quoteTotal": 50,
      "discountTotal": 40,
      "expDate": "29/01/2008",
      "isVisible": 1,
      "paid": 0,
      "operator_ID": 1
    }
  ],
  "Driver": [
    {
      "id": 1,
      "name": "Gabriele",
      "surname": "Gioetto",
      "gender": "M",
      "dateOfBirth": "01/01/1998",
      "ZIPcode": "12048",
      "telephone": "7007000000",
      "privacy": 0,
      "email": "g.gioetto@jetop.com",
      "emailVerified": 1,
      "verificationToken": "token1",
      "user_ID": 1
    }
  ],
  "Operator": [
    {
      "id": 1,
      "name": "Andrea",
      "surname": "Rossi",
      "user_ID": 2,
      "realm": "Non so cos'è sto campo",
      "username": "AndreaUsername",
      "password": "pw",
      "email": "andrea.rossi@gmail.com",
      "emailVerified": 1,
      "verificationToken": "token2"
    }
  ],
  "User": [
    {
      "id": 1,
      "realm": "Non so cos'è sto campo",
      "username": "GabrieleUsername",
      "password": "pw",
      "email": "g.gioetto@jetop.com",
      "emailVerified": 1,
      "verificationToken": "token1"
    },
    {
      "id": 2,
      "realm": "Non so cos'è sto campo",
      "username": "AndreaUsername",
      "password": "pw",
      "email": "andrea.rossi@gmail.com",
      "emailVerified": 1,
      "verificationToken": "token2"
    }
  ],
  "Invoice": [
    {
      "id": 1,
      "number": "",
      "date": "03/10/2018",
      "fileUrl": "www.fileInvoice.com",
      "payment_ID": 1,
      "operator_ID": 2,
      "billingAddress_ID": 1,
      "quote_ID": 1,
      "driver_ID": 1
    }
  ],
  "BillingAddress": [
    {
      "id": 1,
      "fullName": "Gabriele GIoetto",
      "address": "Via Roma 12",
      "city": "Sommariva Bosco",
      "zipCode": 12048,
      "province": "CN",
      "country": "Italy",
      "driver_ID": 1
    }
  ],
  "Payment": [
    {
      "id": 1,
      "quote_ID": 1,
      "paymentMethod": "Master Card",
      "paidTotal": 80,
      "date": "03/01/2018",
      "stripeid": "ch_1DeTy0IhsM9xKm64BiIkUXCF"
    }
  ],
  "Car": [
    {
      "id": 1,
      "plate": "DC555GG",
      "model": "Fiat 500L",
      "driver_ID": 1,
      "carType_ID": 1
    }
  ],
  "CarType": [
    {
      "id": 1,
      "typeName": "5 porte",
      "typePath": "5P",
      "imagePath_F": "F.png",
      "imagePath_B": "B.png",
      "imagePath_L": "L.png",
      "imagePath_R": "R.png"
    }
  ],
  "CarPart": [
    {
      "id": 1,
      "side": "F",
      "partidentifier": 1,
      "partName": "Parabrezza",
      "carType": 1
    },
    {
      "id": 3,
      "side": "F",
      "partidentifier": 3,
      "partName": "Copertone",
      "carType": 1
    }
  ],
  "Damage": [
    {
      "id": 1,
      "description": "Scheggiatura a parabrezza",
      "price": 130,
      "carPart_ID": 1,
      "quote_ID": 1
    },
    {
      "id": 2,
      "description": "Ruota bucata",
      "price": 40,
      "carPart_ID": 3,
      "quote_ID": 1
    }
  ],
  "DamagePicture": [
    {
      "id": 1,
      "pictureUrl": "www.urlDamagePicture.com",
      "damage_ID": 1,
      "damage_carPart_ID": 1,
      "damage_quote_ID": 1
    }
  ],
  "RepairShop": [
    {
      "id": 1,
      "intidentificator": "intidentificator1",
      "name": "Carlo Riparazioni",
      "address": "Via Garibaldi 6",
      "city": "Sommariva Bosco",
      "ZIP": "12048",
      "province": "CN",
      "VAT": "<iva>"
    }
  ]
}
